ph_meter_waves.vcd
$date
	Fri Mar 20 15:43:08 2026
$end
$version
	Icarus Verilog
$end
$timescale
	1ps
$end
$scope module phtb $end
$var wire 8 ! dispA [7:0] $end
$var wire 8 " dispB [7:0] $end
$var wire 8 # dispC [7:0] $end
$var wire 8 $ dispD [7:0] $end
$var reg 12 % adc_readout [11:0] $end
$var reg 1 & calib_btn $end
$var reg 1 ' clk $end
$var reg 4 ( dec_A [3:0] $end
$var reg 4 ) dec_B [3:0] $end
$var reg 4 * dec_C [3:0] $end
$var reg 4 + dec_D [3:0] $end
$var reg 1 , pH_input $end
$var reg 1 - pH_ready $end
$var reg 1 . pH_stable $end
$var reg 1 / pwr_btn $end
$var reg 1 0 rst_n $end
$var reg 16 1 seg_decoded [15:0] $end
$var reg 80 2 state_name [79:0] $end
$scope function seg2dig $end
$var reg 8 3 s [7:0] $end
$upscope $end
$scope module UUT $end
$var wire 12 4 adc_readout [11:0] $end
$var wire 1 & calib_btn $end
$var wire 1 ' clk $end
$var wire 1 , pH_input $end
$var wire 1 - pH_ready $end
$var wire 1 . pH_stable $end
$var wire 1 / pwr_btn $end
$var wire 1 0 rst_n $end
$var wire 2 5 internal_store_display [1:0] $end
$var wire 4 6 internal_ctrl_bus [3:0] $end
$var wire 3 7 internal_cal_done [2:0] $end
$var wire 1 8 internal_blink_en $end
$var wire 1 9 internal_acc_reset $end
$var parameter 32 : CLKS_PER_SEC $end
$scope module system_brain $end
$var wire 1 & calib_btn $end
$var wire 1 ' clk $end
$var wire 1 , pH_input $end
$var wire 1 - pH_ready $end
$var wire 1 . pH_stable $end
$var wire 1 / pwr_btn $end
$var wire 1 0 rst_n $end
$var parameter 32 ; BLINK_HALF $end
$var parameter 4 < CAL4 $end
$var parameter 4 = CAL7 $end
$var parameter 4 > CAL9 $end
$var parameter 32 ? CLKS_PER_SEC $end
$var parameter 4 @ COMPUTE $end
$var parameter 4 A DISPLAY $end
$var parameter 32 B DISPLAY_HOLD $end
$var parameter 4 C STABILIZE $end
$var parameter 4 D STNDBY $end
$var parameter 4 E STORE4 $end
$var parameter 4 F STORE7 $end
$var parameter 4 G STORE9 $end
$var reg 1 9 acc_reset $end
$var reg 3 H blink_cnt [2:0] $end
$var reg 1 8 blink_en $end
$var reg 1 I blink_tick $end
$var reg 3 J cal_done [2:0] $end
$var reg 4 K ctrl_bus [3:0] $end
$var reg 4 L current_state [3:0] $end
$var reg 4 M disp_hold_cnt [3:0] $end
$var reg 1 N disp_hold_done $end
$var reg 4 O next_state [3:0] $end
$var reg 2 P store_display [1:0] $end
$upscope $end
$scope module system_datapath $end
$var wire 1 9 acc_reset $end
$var wire 12 Q adc_readout [11:0] $end
$var wire 3 R cal_done [2:0] $end
$var wire 1 ' clk $end
$var wire 4 S ctrl_bus [3:0] $end
$var wire 12 T data_bus [11:0] $end
$var wire 2 U store_display [1:0] $end
$var wire 1 V nc_ld $end
$var wire 1 W dsv $end
$var wire 4 X d_tenths [3:0] $end
$var wire 4 Y d_tens [3:0] $end
$var wire 4 Z d_ones [3:0] $end
$var wire 4 [ d_hundredths [3:0] $end
$var wire 1 \ cbb $end
$var wire 1 ] cba $end
$var reg 28 ^ bcd_shift [27:0] $end
$var reg 4 _ disp_data_bus [3:0] $end
$var reg 2 ` display_selector [1:0] $end
$var reg 24 a display_value [23:0] $end
$var reg 16 b temporary_bcd [15:0] $end
$var reg 24 c temporary_result [23:0] $end
$var integer 32 d i [31:0] $end
$scope module arithmem_unit $end
$var wire 1 9 acc_reset $end
$var wire 12 e bus [11:0] $end
$var wire 3 f cal_done [2:0] $end
$var wire 1 ' clk $end
$var wire 2 g mode [1:0] $end
$var wire 1 V neval_load $end
$var wire 24 h sens_basic [23:0] $end
$var wire 24 i sens_acidic [23:0] $end
$var parameter 11 j DENOM_ACIDIC $end
$var parameter 11 k DENOM_BASIC $end
$var parameter 11 l PH_ACIDIC $end
$var parameter 11 m PH_BASIC $end
$var parameter 11 n PH_NEUTRAL $end
$var reg 28 o accumulator [27:0] $end
$var reg 12 p acidic_point [11:0] $end
$var reg 12 q basic_point [11:0] $end
$var reg 12 r intrcpt [11:0] $end
$var reg 12 s ph_cache [11:0] $end
$var reg 14 t ph_result [13:0] $end
$var reg 1 u prev_neval_load $end
$var reg 16 v sample_count [15:0] $end
$var reg 24 w sense_offset [23:0] $end
$upscope $end
$scope module display $end
$var wire 4 x bus [3:0] $end
$var wire 1 y reset $end
$var wire 2 z selector [1:0] $end
$var wire 1 ' write_clk $end
$var wire 8 { sseg_bus [7:0] $end
$var reg 1 | d_point $end
$var reg 8 } dispA [7:0] $end
$var reg 8 ~ dispB [7:0] $end
$var reg 8 !" dispC [7:0] $end
$var reg 8 "" dispD [7:0] $end
$scope module decoder $end
$var wire 1 | decimal_point $end
$var wire 4 #" hex_data [3:0] $end
$var reg 8 $" sseg_data [7:0] $end
$upscope $end
$upscope $end
$upscope $end
$upscope $end
$scope task calibrate $end
$var reg 12 %" adc_val [11:0] $end
$var reg 80 &" label [79:0] $end
$var reg 4 '" store_state [3:0] $end
$upscope $end
$scope task wait_state $end
$var reg 4 (" target [3:0] $end
$var integer 32 )" max_cycles [31:0] $end
$var integer 32 *" n [31:0] $end
$upscope $end
$upscope $end
$enddefinitions $end
$comment Show the parameter values. $end
$dumpall
b1010101110 n
b1110010110 m
b110010000 l
b11101000 k
b11011100010 j
b1001 G
b101 F
b111 E
b0 D
b1 C
b1010 B
b11 A
b10 @
b1010 ?
b1000 >
b100 =
b110 <
b101 ;
b1010 :
$end
#0
$dumpvars
bx *"
bx )"
bx ("
bx '"
bx &"
bx %"
bx $"
bx #"
bx ""
bx !"
bx ~
bx }
x|
bx {
b1 z
1y
bx x
b0 w
b0 v
0u
b1010111100 t
b100000000000 s
b100000000000 r
b0 q
b111111111111 p
b0 o
b111111111110010000001011 i
b111111111101110110000101 h
b0 g
bx f
b1010111100 e
bx d
bx c
bx b
bx a
b1 `
bx _
bx ^
0]
0\
bx [
bx Z
bx Y
bx X
0W
0V
b0 U
b1010111100 T
b0 S
bx R
b0 Q
b0 P
b0 O
0N
b0 M
b0 L
b0 K
bx J
1I
b0 H
09
08
bx 7
b0 6
b0 5
b0 4
bx 3
b10100110101010001001110010001000100001001011001001000000010000000100000 2
bx 1
10
0/
0.
0-
0,
bx +
bx *
bx )
bx (
0'
0&
b0 %
bx $
bx #
bx "
bx !
$end
#5000
b0 [
b0 X
b111 Z
b0 Y
b11100000000 b
b1011 d
b1110000000000000000000 ^
b1010111100 a
b1010111100 c
b1111111111111111 1
b1111 +
b1111 *
b1111 )
b1111 (
b1111110 3
b1111110 $
b1111110 ""
b1111110 #
b1111110 !"
b1111110 "
b1111110 ~
b1111110 !
b1111110 }
1'
#10000
b1110000x {
b1110000x $"
b111 _
b111 x
b111 #"
b10 `
b10 z
0'
#15000
1'
#20000
b1111110x {
b1111110x $"
b0 _
b0 x
b0 #"
b11 `
b11 z
0'
#25000
1'
#30000
b0 `
b0 z
0'
#35000
1'
#40000
b1 `
b1 z
0'
1/
#45000
b1 H
1'
#46000
b100000000000 %
b100000000000 4
b100000000000 Q
b1000000010000001000011010000010100110000110111 &"
b101 '"
b100000000000 %"
#50000
b1110000x {
b1110000x $"
b100 O
b111 _
b111 x
b111 #"
b10 `
b10 z
1&
0'
#55000
0y
b100000000000 T
b100000000000 e
1W
1V
1]
b11 g
1\
b1111 6
b1111 K
b1111 S
18
b10000110100000101001100001101110010000000100000001000000010000000100000 2
b100 L
19
b10 H
1'
#60000
b1111110x {
b1111110x $"
b0 _
b0 x
b0 #"
b11 `
b11 z
0'
#65000
09
b11 H
1u
b111111111111 1
b0 (
b1111110 3
b11111100 {
b11111100 $"
b1111110x !
b1111110x }
0|
1'
#70000
b0 `
b0 z
0'
#75000
b100 H
b1 v
b100000000000 o
b111111110000 1
b0 +
b11111100 3
b11111100 $
b11111100 ""
1'
#80000
b1 `
b1 z
0'
#85000
b101 H
b10 v
b1000000000000 o
b111100000000 1
b0 *
b11111100 3
b11111100 #
b11111100 !"
1'
#90000
b11100000 {
b11100000 $"
b101 O
b111 _
b111 x
b111 #"
b10 `
b10 z
1.
0'
#95000
b110 [
b1000 X
b110 Z
b11010000110 b
b1011 d
b1101000011000000000000 ^
b1010111100 T
b1010111100 e
b1010101110 a
0V
b10100110101010001001111010100100100010100110111001000000010000000100000 2
b1 5
b1 P
b1 U
08
b1011 6
b1011 K
b1011 S
b101 L
0I
b0 H
b11 v
b1100000000000 o
b11100000000 1
b111 )
b11111100 3
b11100001 {
b11100001 $"
b11100000 "
b11100000 ~
1|
1'
#96000
b0 *"
b1010 )"
b101 ("
0&
0.
#100000
b11111101 {
b11111101 $"
b0 _
b0 x
b0 #"
b11 `
b11 z
0'
#105000
bx1 7
bx1 J
bx1 R
bx1 f
b1 M
b1 H
b0 v
b0 o
0u
b11111100 3
b11111100 {
b11111100 $"
b11111101 !
b11111101 }
0|
1'
#110000
b10111110 {
b10111110 $"
b110 _
b110 x
b110 #"
b0 `
b0 z
0'
#115000
b10 M
b10 H
b11100000110 1
b110 +
b10111110 3
b10111110 $
b10111110 ""
1'
#120000
b11111110 {
b11111110 $"
b1000 _
b1000 x
b1000 #"
b1 `
b1 z
0'
#125000
b11 M
b11 H
b11110000110 1
b1000 *
b10111110 3
b11111110 #
b11111110 !"
1'
#130000
b10111110 {
b10111110 $"
b110 _
b110 x
b110 #"
b10 `
b10 z
0'
#135000
b100 M
b100 H
b11010000110 1
b110 )
b10111110 3
b10111111 {
b10111111 $"
b10111110 "
b10111110 ~
1|
1'
#140000
b11111101 {
b11111101 $"
b0 _
b0 x
b0 #"
b11 `
b11 z
0'
#145000
b101 M
b101 H
b11111100 {
b11111100 $"
0|
1'
#150000
b10111110 {
b10111110 $"
b110 _
b110 x
b110 #"
b0 `
b0 z
0'
#155000
b110 M
1I
b0 H
1'
#160000
b11111110 {
b11111110 $"
b1000 _
b1000 x
b1000 #"
b1 `
b1 z
0'
#165000
b111 M
b1 H
1'
#170000
b10111110 {
b10111110 $"
b110 _
b110 x
b110 #"
b10 `
b10 z
0'
#175000
b1000 M
b10 H
b10111111 {
b10111111 $"
1|
1'
#176000
b0 ("
#180000
b11111101 {
b11111101 $"
b0 _
b0 x
b0 #"
b11 `
b11 z
0'
#185000
b1001 M
b11 H
b11111100 {
b11111100 $"
0|
b1 *"
1'
#190000
b10111110 {
b10111110 $"
b110 _
b110 x
b110 #"
b0 `
b0 z
0'
#195000
b1010 M
b100 H
b10 *"
1'
#200000
b11111110 {
b11111110 $"
b1000 _
b1000 x
b1000 #"
b1 `
b1 z
0'
#205000
b0 O
b0 M
1N
b101 H
b11 *"
1'
#210000
b10111110 {
b10111110 $"
b110 _
b110 x
b110 #"
b10 `
b10 z
0'
#215000
b0 [
b0 X
b111 Z
b11100000000 b
b1011 d
b1110000000000000000000 ^
1y
b1010111100 a
0W
0]
b0 g
0\
b0 5
b0 P
b0 U
b10100110101010001001110010001000100001001011001001000000010000000100000 2
b0 6
b0 K
b0 S
b0 L
b1 M
0N
0I
b0 H
b10111111 {
b10111111 $"
b100 *"
1|
1'
#220000
b11111101 {
b11111101 $"
b0 _
b0 x
b0 #"
b11 `
b11 z
0'
#225000
b0 M
b1 H
b1111111111111111 1
b1111 +
b1111 *
b1111 )
b1111 (
b1111110 3
b110010000000 %
b110010000000 4
b110010000000 Q
b1111110 $
b1111110 ""
b1111110 #
b1111110 !"
b1111110 "
b1111110 ~
b1111110 !
b1111110 }
b101 *"
1'
#230000
b1 O
b0 *"
b0 `
b0 z
b101 )"
b1 ("
1,
0'
#235000
b110010000000 T
b110010000000 e
1V
b100 6
b100 K
b100 S
b10100110101010001000001010000100100100101001100010010010101101001000101 2
18
b1 L
19
b10 H
b1 *"
1'
#240000
b1 `
b1 z
0'
#245000
09
b11 H
1u
b10 *"
1'
#250000
b11100001 {
b11100001 $"
b111 _
b111 x
b111 #"
b10 `
b10 z
0'
#255000
b100 H
b1 v
b110010000000 o
1'
#260000
b11111101 {
b11111101 $"
b0 _
b0 x
b0 #"
b11 `
b11 z
0'
#265000
b101 H
b10 v
b1100100000000 o
1'
#270000
b0 `
b0 z
0'
#275000
0y
1W
b1100 6
b1100 K
b1100 S
1I
b0 H
b11 v
b10010110000000 o
1'
#280000
b10 O
b1 `
b1 z
1.
0'
#285000
b1010111100 T
b1010111100 e
0V
b1000 6
b1000 K
b1000 S
b10000110100111101001101010100000101010101010100010001010010000000100000 2
b10 L
b1 H
b100 v
b11001000000000 o
b1111111100001111 1
b0 *
b1111110 3
b11111100 {
b11111100 $"
b11111101 #
b11111101 !"
0|
1'
#286000
b0 *"
b10 ("
0.
#290000
b11100000 {
b11100000 $"
b11 O
b111 _
b111 x
b111 #"
b10 `
b10 z
1-
0'
#295000
b10001000110 T
b10001000110 e
b10001000100100101010011010100000100110001000001010110010010000000100000 2
08
b10001000110 t
b11 L
b10 H
b0 v
b0 o
b110010000000 s
0u
b1111011100001111 1
b111 )
b1111110 3
b11100001 {
b11100001 $"
b11100000 "
b11100000 ~
1|
1'
#296000
b11 ("
0-
#300000
b11111101 {
b11111101 $"
b110 O
b0 _
b0 x
b0 #"
b11 `
b11 z
1&
0'
#305000
b110010000000 T
b110010000000 e
b100 [
b1001 X
b0 Z
b1 Y
1V
b10 g
1]
b1000010010100 b
b1011 d
b100001001010000000000000 ^
b1110 6
b1110 K
b1110 S
18
b10000110100000101001100001101000010000000100000001000000010000000100000 2
b10001000110 a
b110 L
19
b11 H
b10001000110 c
b11100001111 1
b0 (
b1111110 3
b11111100 {
b11111100 $"
b11111101 !
b11111101 }
0|
1'
#306000
0,
0&
#310000
b1100110 {
b1100110 $"
b100 _
b100 x
b100 #"
b0 `
b0 z
0'
#315000
09
b100 H
1u
b11100000100 1
b100 +
b1100110 3
b1100110 $
b1100110 ""
1'
#320000
b11110110 {
b11110110 $"
b1001 _
b1001 x
b1001 #"
b1 `
b1 z
0'
#325000
b101 H
b1 v
b110010000000 o
b11110010100 1
b1001 *
b1100110 3
b11110110 #
b11110110 !"
1'
#330000
b11111100 {
b11111100 $"
b0 _
b0 x
b0 #"
b10 `
b10 z
0'
#335000
1y
0W
b110 6
b110 K
b110 S
0I
b0 H
b10 v
b1100100000000 o
b10010100 1
b0 )
b1100110 3
b11111101 {
b11111101 $"
b11111100 "
b11111100 ~
1|
1'
#340000
b1100001 {
b1100001 $"
b111 O
b1 _
b1 x
b1 #"
b11 `
b11 z
1.
0'
#345000
b0 [
b0 X
b100 Z
b0 Y
0y
b10001000110 T
b10001000110 e
b10000000000 b
b1011 d
b1000000000000000000000 ^
1W
0V
b110010000 a
b1010 6
b1010 K
b1010 S
b10100110101010001001111010100100100010100110100001000000010000000100000 2
b10 5
b10 P
b10 U
08
b111 L
b1 H
b11 v
b10010110000000 o
b1111111111111111 1
b1111 +
b1111 *
b1111 )
b1111 (
b1111110 3
b1111110 $
b1111110 ""
b1111110 #
b1111110 !"
b1111110 "
b1111110 ~
b1111110 !
b1111110 }
1'
#346000
b1010 )"
b111 ("
0.
#350000
b11111101 {
b11111101 $"
b0 _
b0 x
b0 #"
b0 `
b0 z
0'
#355000
bx11 7
bx11 J
bx11 R
bx11 f
b1 M
b10 H
b0 v
b0 o
b111111111111000001000101 i
b110010000000 p
0u
b1111111111110000 1
b0 +
b11111101 3
b11111100 {
b11111100 $"
b11111101 $
b11111101 ""
0|
1'
#360000
b1 `
b1 z
0'
#365000
b10 M
b11 H
b1111111100000000 1
b0 *
b11111101 3
b11111100 #
b11111100 !"
1'
#370000
b1100110 {
b1100110 $"
b100 _
b100 x
b100 #"
b10 `
b10 z
0'
#375000
b11 M
b100 H
b1111010000000000 1
b100 )
b11111101 3
b1100111 {
b1100111 $"
b1100110 "
b1100110 ~
1|
1'
#380000
b11111101 {
b11111101 $"
b0 _
b0 x
b0 #"
b11 `
b11 z
0'
#385000
b100 M
b101 H
b10000000000 1
b11111101 3
b0 (
b11111100 {
b11111100 $"
b11111101 !
b11111101 }
0|
1'
#390000
b0 `
b0 z
0'
#395000
b101 M
1I
b0 H
b11111100 3
b11111100 $
b11111100 ""
1'
#400000
b1 `
b1 z
0'
#405000
b110 M
b1 H
1'
#410000
b1100110 {
b1100110 $"
b100 _
b100 x
b100 #"
b10 `
b10 z
0'
#415000
b111 M
b10 H
b1100111 {
b1100111 $"
1|
1'
#420000
b11111101 {
b11111101 $"
b0 _
b0 x
b0 #"
b11 `
b11 z
0'
#425000
b1000 M
b11 H
b11111100 {
b11111100 $"
0|
1'
#426000
b0 ("
#430000
b0 `
b0 z
0'
#435000
b1001 M
b100 H
b1 *"
1'
#440000
b1 `
b1 z
0'
#445000
b1010 M
b101 H
b10 *"
1'
#450000
b1100110 {
b1100110 $"
b100 _
b100 x
b100 #"
b10 `
b10 z
0'
#455000
b0 O
b0 M
1N
0I
b0 H
b1100111 {
b1100111 $"
1|
b11 *"
1'
#460000
b11111101 {
b11111101 $"
b0 _
b0 x
b0 #"
b11 `
b11 z
0'
#465000
b100 [
b1001 X
b0 Z
b1 Y
1y
b1000010010100 b
b1011 d
b100001001010000000000000 ^
0W
b0 g
0]
b10001000110 a
b0 6
b0 K
b0 S
b0 5
b0 P
b0 U
b10100110101010001001110010001000100001001011001001000000010000000100000 2
b0 L
b1 M
0N
b1 H
b11111100 {
b11111100 $"
b100 *"
0|
1'
#470000
b1100110 {
b1100110 $"
b100 _
b100 x
b100 #"
b0 `
b0 z
0'
#475000
b0 M
b10 H
b1111111111111111 1
b1111 +
b1111 *
b1111 )
b1111 (
b1111110 3
b1110000100 %
b1110000100 4
b1110000100 Q
b1000000010000001000011010000010100110000111001 &"
b1001 '"
b1110000100 %"
b1111110 $
b1111110 ""
b1111110 #
b1111110 !"
b1111110 "
b1111110 ~
b1111110 !
b1111110 }
b101 *"
1'
#480000
b11110110 {
b11110110 $"
b1000 O
b1001 _
b1001 x
b1001 #"
b1 `
b1 z
1&
0'
#485000
b1110000100 T
b1110000100 e
1V
b1 g
1\
b101 6
b101 K
b101 S
b10000110100000101001100001110010010000000100000001000000010000000100000 2
18
b1000 L
19
b11 H
1'
#490000
b11111100 {
b11111100 $"
b0 _
b0 x
b0 #"
b10 `
b10 z
0'
#495000
09
b100 H
1u
1'
#500000
b1100000 {
b1100000 $"
b1 _
b1 x
b1 #"
b11 `
b11 z
0'
#505000
b101 H
b1 v
b1110000100 o
1'
#510000
b1100110 {
b1100110 $"
b100 _
b100 x
b100 #"
b0 `
b0 z
0'
#515000
0y
1W
b1101 6
b1101 K
b1101 S
1I
b0 H
b10 v
b11100001000 o
1'
#520000
b11110110 {
b11110110 $"
b1001 O
b1001 _
b1001 x
b1001 #"
b1 `
b1 z
1.
0'
#525000
b1000 [
b1 X
b1001 Z
b0 Y
b10001000110 T
b10001000110 e
b100100011000 b
b1011 d
b10010001100000000000000 ^
0V
b1110010110 a
b1001 6
b1001 K
b1001 S
08
b11 5
b11 P
b11 U
b10100110101010001001111010100100100010100111001001000000010000000100000 2
b1001 L
b1 H
b11 v
b101010001100 o
b1111111110011111 1
b1001 *
b1111110 3
b11110110 #
b11110110 !"
1'
#526000
b0 *"
b1001 ("
0&
0.
#530000
b10 `
b10 z
0'
#535000
b111 7
b111 J
b111 R
b111 f
b1 M
b10 H
b0 v
b0 o
b111111111110110010101100 h
b1110000100 q
0u
b1111100110011111 1
b1001 )
b1111110 3
b11110111 {
b11110111 $"
b11110110 "
b11110110 ~
1|
1'
#540000
b11111101 {
b11111101 $"
b0 _
b0 x
b0 #"
b11 `
b11 z
0'
#545000
b10 M
b11 H
b100110011111 1
b0 (
b1111110 3
b11111100 {
b11111100 $"
b11111101 !
b11111101 }
0|
1'
#550000
b11111110 {
b11111110 $"
b1000 _
b1000 x
b1000 #"
b0 `
b0 z
0'
#555000
b11 M
b100 H
b100110011000 1
b1000 +
b11111110 3
b11111110 $
b11111110 ""
1'
#560000
b1100000 {
b1100000 $"
b1 _
b1 x
b1 #"
b1 `
b1 z
0'
#565000
b100 M
b101 H
b100100011000 1
b1 *
b11111110 3
b1100000 #
b1100000 !"
1'
#570000
b11110110 {
b11110110 $"
b1001 _
b1001 x
b1001 #"
b10 `
b10 z
0'
#575000
b101 M
0I
b0 H
b11110111 {
b11110111 $"
1|
1'
#580000
b11111101 {
b11111101 $"
b0 _
b0 x
b0 #"
b11 `
b11 z
0'
#585000
b110 M
b1 H
b11111100 {
b11111100 $"
0|
1'
#590000
b11111110 {
b11111110 $"
b1000 _
b1000 x
b1000 #"
b0 `
b0 z
0'
#595000
b111 M
b10 H
1'
#600000
b1100000 {
b1100000 $"
b1 _
b1 x
b1 #"
b1 `
b1 z
0'
#605000
b1000 M
b11 H
1'
#606000
b0 ("
#610000
b11110110 {
b11110110 $"
b1001 _
b1001 x
b1001 #"
b10 `
b10 z
0'
#615000
b1001 M
b100 H
b11110111 {
b11110111 $"
1|
b1 *"
1'
#620000
b11111101 {
b11111101 $"
b0 _
b0 x
b0 #"
b11 `
b11 z
0'
#625000
b1010 M
b101 H
b11111100 {
b11111100 $"
b10 *"
0|
1'
#630000
b11111110 {
b11111110 $"
b1000 _
b1000 x
b1000 #"
b0 `
b0 z
0'
#635000
b0 O
b0 M
1N
1I
b0 H
b11 *"
1'
#640000
b1100000 {
b1100000 $"
b1 _
b1 x
b1 #"
b1 `
b1 z
0'
#645000
b110010000 T
b110010000 e
b100 [
b1001 X
b0 Z
b1 Y
1y
b110010000 t
b10010000000 w
b1000010010100 b
b1011 d
b100001001010000000000000 ^
0W
b0 g
0\
b10001000110 a
b0 6
b0 K
b0 S
b10100110101010001001110010001000100001001011001001000000010000000100000 2
b0 5
b0 P
b0 U
b0 L
b1 M
0N
b1 H
b100 *"
1'
#650000
b11111100 {
b11111100 $"
b0 _
b0 x
b0 #"
b10 `
b10 z
0'
#655000
b0 [
b0 X
b100 Z
b0 Y
b10000000000 b
b1011 d
b1000000000000000000000 ^
b110010000 a
b0 M
b10 H
b110010000 c
b1111111111111111 1
b1111 +
b1111 *
b1111 )
b1111 (
b1111110 3
b110111011110 %
b110111011110 4
b110111011110 Q
b1111110 $
b1111110 ""
b1111110 #
b1111110 !"
b1111110 "
b1111110 ~
b1111110 !
b1111110 }
b101 *"
1'
#660000
b1 O
b0 *"
b11 `
b11 z
b101 )"
b1 ("
1,
0'
#665000
0y
b0 w
b110111011110 T
b110111011110 e
1W
1V
b1100 6
b1100 K
b1100 S
18
b10100110101010001000001010000100100100101001100010010010101101001000101 2
b1 L
19
b11 H
b1 *"
1'
#670000
b0 `
b0 z
0'
#675000
09
b100 H
1u
b1111111111110000 1
b0 +
b11111100 3
b10 *"
b11111100 $
b11111100 ""
1'
#680000
b1 `
b1 z
0'
#685000
b101 H
b1 v
b110111011110 o
b1111111100000000 1
b0 *
b11111100 3
b11111100 #
b11111100 !"
1'
#690000
b1100110 {
b1100110 $"
b100 _
b100 x
b100 #"
b10 `
b10 z
0'
#695000
1y
0W
b100 6
b100 K
b100 S
0I
b0 H
b10 v
b1101110111100 o
b1111010000000000 1
b100 )
b11111100 3
b1100111 {
b1100111 $"
b1100110 "
b1100110 ~
1|
1'
#700000
b11111101 {
b11111101 $"
b0 _
b0 x
b0 #"
b11 `
b11 z
0'
#705000
b1 H
b11 v
b10100110011010 o
b1111111111111111 1
b1111 +
b1111 *
b1111 )
b1111110 3
b1111110 $
b1111110 ""
b1111110 #
b1111110 !"
b1111110 "
b1111110 ~
1'
#710000
b10 O
b0 `
b0 z
1.
0'
#715000
b10010000000 w
b110010000 T
b110010000 e
0V
b0 6
b0 K
b0 S
b10000110100111101001101010100000101010101010100010001010010000000100000 2
b10 L
b10 H
b100 v
b11011101111000 o
1'
#716000
b0 *"
b10 ("
0.
#720000
b11 O
b1 `
b1 z
1-
0'
#725000
0y
b100111010 T
b100111010 e
1W
b1000 6
b1000 K
b1000 S
08
b10001000100100101010011010100000100110001000001010110010010000000100000 2
b100111010 t
b10111011110 w
b11 L
b11 H
b0 v
b0 o
b110111011110 s
0u
1'
#726000
b11 ("
0-
#730000
b1100111 {
b1100111 $"
b100 _
b100 x
b100 #"
b10 `
b10 z
0'
#735000
b100 [
b1 X
b11 Z
b1100010100 b
b1011 d
b110001010000000000000 ^
b100111010 a
b100 H
b100111010 c
b1111010011111111 1
b100 )
b1111110 3
b1100111 "
b1100111 ~
1'
#740000
b11111101 {
b11111101 $"
b0 _
b0 x
b0 #"
b11 `
b11 z
0'
#745000
b101 H
b10011111111 1
b0 (
b1111110 3
b11111100 {
b11111100 $"
b11111101 !
b11111101 }
0|
1'
#750000
b1100110 {
b1100110 $"
b100 _
b100 x
b100 #"
b0 `
b0 z
0'
#755000
1I
b0 H
b10011110100 1
b100 +
b1100110 3
b1100110 $
b1100110 ""
1'
#760000
b1100000 {
b1100000 $"
b1 _
b1 x
b1 #"
b1 `
b1 z
0'
#765000
b1 H
b10000010100 1
b1 *
b1100110 3
b1100000 #
b1100000 !"
1'
#770000
b11110010 {
b11110010 $"
b11 _
b11 x
b11 #"
b10 `
b10 z
0'
#775000
b10 H
b1100010100 1
b11 )
b1100110 3
b11110011 {
b11110011 $"
b11110010 "
b11110010 ~
1|
1'
#780000
b11111101 {
b11111101 $"
b0 _
b0 x
b0 #"
b11 `
b11 z
0'
#785000
b11 H
b11111100 {
b11111100 $"
0|
1'
#790000
b1100110 {
b1100110 $"
b100 _
b100 x
b100 #"
b0 `
b0 z
0'
#795000
b100 H
1'
#800000
b1100000 {
b1100000 $"
b1 _
b1 x
b1 #"
b1 `
b1 z
0'
#805000
b101 H
1'
#810000
b11110010 {
b11110010 $"
b0 O
b11 _
b11 x
b11 #"
b10 `
b10 z
b0 ("
0,
0'
#815000
1y
0W
b10100110101010001001110010001000100001001011001001000000010000000100000 2
b0 6
b0 K
b0 S
b0 L
0I
b0 H
b11110011 {
b11110011 $"
1|
b1 *"
1'
#820000
b11111101 {
b11111101 $"
b0 _
b0 x
b0 #"
b11 `
b11 z
0'
#825000
b1 H
b1111111111111111 1
b1111 +
b1111 *
b1111 )
b1111 (
b1111110 3
b10 *"
b1111110 $
b1111110 ""
b1111110 #
b1111110 !"
b1111110 "
b1111110 ~
b1111110 !
b1111110 }
1'
#830000
b1100111 {
b1100111 $"
b100 _
b100 x
b100 #"
b0 `
b0 z
0'
#835000
b10 H
1'
#840000
b1100001 {
b1100001 $"
b1 _
b1 x
b1 #"
b1 `
b1 z
0'
#845000
b11 H
1'
#850000
b11110011 {
b11110011 $"
b11 _
b11 x
b11 #"
b10 `
b10 z
0'
#855000
b100 H
1'
#860000
b11111101 {
b11111101 $"
b0 _
b0 x
b0 #"
b11 `
b11 z
0'
#865000
b101 H
1'
#870000
b1100111 {
b1100111 $"
b100 _
b100 x
b100 #"
b0 `
b0 z
0'
#875000
1I
b0 H
1'
#880000
b1100001 {
b1100001 $"
b1 _
b1 x
b1 #"
b1 `
b1 z
0'
#885000
b1 H
1'
#890000
b11110011 {
b11110011 $"
b11 _
b11 x
b11 #"
b10 `
b10 z
0'
#895000
b10 H
1'
#900000
b11111101 {
b11111101 $"
b0 _
b0 x
b0 #"
b11 `
b11 z
0'
#905000
b11 H
1'
#910000
b1100111 {
b1100111 $"
b100 _
b100 x
b100 #"
b0 `
b0 z
0'
#915000
b100 H
1'
#920000
b1100001 {
b1100001 $"
b1 _
b1 x
b1 #"
b1 `
b1 z
0'
#925000
b101 H
1'
